[
   {
      "minLat":4.810874,
      "name":"Abia",
      "capital":"Umuahia",
      "latitude":5.430892099999999,
      "minLong":7.150823,
      "maxLat":6.0191921,
      "longitude":7.524724300000001,
      "maxLong":7.9630091
   },
   {
      "minLat":7.452592,
      "name":"Adamawa",
      "capital":"Yola",
      "latitude":9.3250497,
      "minLong":11.392936,
      "maxLat":10.943588,
      "longitude":12.4380581,
      "maxLong":13.6924919
   },
   {
      "minLat":4.4780049,
      "name":"Akwa Ibom",
      "capital":"Uyo",
      "latitude":4.929986899999999,
      "minLong":7.4605409,
      "maxLat":5.530245,
      "longitude":7.872159999999999,
      "maxLong":8.340371
   },
   {
      "minLat":5.692615000000001,
      "name":"Anambra",
      "capital":"Awka",
      "latitude":6.2757656,
      "minLong":6.613086,
      "maxLat":6.7795999,
      "longitude":7.0068393,
      "maxLong":7.355934
   },
   {
      "minLat":10.255381,
      "name":"Bauchi",
      "capital":"Bauchi",
      "latitude":10.315833,
      "minLong":9.779892,
      "maxLat":10.3398292,
      "longitude":9.844166999999999,
      "maxLong":9.864006
   },
   {
      "minLat":6.4427789,
      "name":"Benue",
      "capital":"Makurdi",
      "latitude":7.350825899999999,
      "minLong":7.4893301,
      "maxLat":8.149299,
      "longitude":8.8362755,
      "maxLong":9.918301
   },
   {
      "minLat":10.0291549,
      "name":"Borno",
      "capital":"Maiduguri",
      "latitude":11.5097479,
      "minLong":11.6286559,
      "maxLat":13.7144441,
      "longitude":12.9789121,
      "maxLong":14.680073
   },
   {
      "minLat":4.2771439,
      "name":"Bayelsa",
      "capital":"Yenagoa",
      "latitude":4.867776699999999,
      "minLong":5.370120500000001,
      "maxLat":5.3933139,
      "longitude":5.898713900000001,
      "maxLong":6.724865899999999
   },
   {
      "minLat":4.690596000000001,
      "name":"Cross River",
      "capital":"Calabar",
      "latitude":6.167031499999999,
      "minLong":7.863165999999999,
      "maxLat":6.899680999999999,
      "longitude":8.6600586,
      "maxLong":9.472486
   },
   {
      "minLat":5.024351999999999,
      "name":"Delta",
      "capital":"Asaba",
      "latitude":5.5324624,
      "minLong":5.000000099999999,
      "maxLat":6.5248195,
      "longitude":5.898713900000001,
      "maxLong":6.7653911
   },
   {
      "minLat":5.6873539,
      "name":"Ebonyi",
      "capital":"Abakaliki",
      "latitude":6.177973,
      "minLong":7.5251131,
      "maxLat":6.807093,
      "longitude":7.959286299999999,
      "maxLong":8.4470269
   },
   {
      "minLat":5.7386799,
      "name":"Edo",
      "capital":"Benin",
      "latitude":6.5438101,
      "minLong":4.975229,
      "maxLat":7.5721479,
      "longitude":5.898713900000001,
      "maxLong":6.707891000000001
   },
   {
      "minLat":7.272215999999999,
      "name":"Ekiti",
      "capital":"Ado-Ekiti",
      "latitude":7.665581299999999,
      "minLong":4.9103081,
      "maxLat":8.0674911,
      "longitude":5.3102505,
      "maxLong":5.8048959
   },
   {
      "minLat":6.360852,
      "name":"Enugu",
      "capital":"Enugu",
      "latitude":6.452667,
      "minLong":7.458772700000001,
      "maxLat":6.5155669,
      "longitude":7.510332999999998,
      "maxLong":7.618160199999999
   },
   {
      "minLat":8.396675,
      "name":"Federal Capital Territory",
      "capital":"Abuja",
      "latitude":8.8556838,
      "minLong":6.749135,
      "maxLat":9.3574219,
      "longitude":7.179025999999999,
      "maxLong":7.617400000000001
   },
   {
      "minLat":10.264117,
      "name":"Gombe",
      "capital":"Gombe",
      "latitude":10.283333,
      "minLong":11.1424112,
      "maxLat":10.3128497,
      "longitude":11.166667,
      "maxLong":11.2147019
   },
   {
      "minLat":12.5688205,
      "name":"Jigawa",
      "capital":"Dutse",
      "latitude":12.5700315,
      "minLong":8.9387779,
      "maxLat":12.5708993,
      "longitude":8.9400589,
      "maxLong":8.9410364
   },
   {
      "minLat":5.179824000000001,
      "name":"Imo",
      "capital":"Owerri",
      "latitude":5.5214533,
      "minLong":6.622309899999999,
      "maxLat":5.928465,
      "longitude":6.920913499999999,
      "maxLong":7.404109
   },
   {
      "minLat":10.3971566,
      "name":"Kaduna",
      "capital":"Kaduna",
      "latitude":10.516667,
      "minLong":7.349789099999999,
      "maxLat":10.6169963,
      "longitude":7.433332999999999,
      "maxLong":7.508812000000001
   },
   {
      "minLat":10.0931591,
      "name":"Kebbi",
      "capital":"Birnin Kebbi",
      "latitude":11.6781241,
      "minLong":3.4958741,
      "maxLat":13.232542,
      "longitude":4.0695454,
      "maxLong":6.027123
   },
   {
      "minLat":11.912873,
      "name":"Kano",
      "capital":"Kano",
      "latitude":12.0021794,
      "minLong":8.411321599999999,
      "maxLat":12.0829016,
      "longitude":8.591956099999999,
      "maxLong":8.6704765
   },
   {
      "minLat":6.528274199999999,
      "name":"Kogi",
      "capital":"Lokoja",
      "latitude":7.561891,
      "minLong":5.340376,
      "maxLat":8.7320238,
      "longitude":6.5783387,
      "maxLong":7.8822179
   },
   {
      "minLat":6.3936419,
      "name":"Lagos",
      "capital":"Ikeja",
      "latitude":6.5243793,
      "minLong":3.0982732,
      "maxLat":6.7027984,
      "longitude":3.3792057,
      "maxLong":3.696727799999999
   },
   {
      "minLat":12.934095,
      "name":"Katsina",
      "capital":"Katsina",
      "latitude":12.983333,
      "minLong":7.5706298,
      "maxLat":13.0357094,
      "longitude":7.6,
      "maxLong":7.676266000000001
   },
   {
      "minLat":7.966079000000001,
      "name":"Kwara",
      "capital":"Ilorin",
      "latitude":8.9847995,
      "minLong":2.728413,
      "maxLat":10.152084,
      "longitude":4.5624426,
      "maxLong":6.2142591
   },
   {
      "minLat":7.769181,
      "name":"Nasarawa",
      "capital":"Lafia",
      "latitude":8.5705151,
      "minLong":6.924008,
      "maxLat":9.365964000000002,
      "longitude":8.3088441,
      "maxLong":9.605724
   },
   {
      "minLat":4.269857099999999,
      "name":"Niger",
      "capital":"Minna",
      "latitude":9.081999,
      "minLong":2.676932,
      "maxLat":13.885645,
      "longitude":8.675277,
      "maxLong":14.677982
   },
   {
      "minLat":6.315346099999999,
      "name":"Ogun",
      "capital":"Abeokuta",
      "latitude":6.9098333,
      "minLong":2.668432,
      "maxLat":7.974634999999999,
      "longitude":3.2583626,
      "maxLong":4.5990951
   },
   {
      "minLat":7.0529381,
      "name":"Ondo",
      "capital":"Akure",
      "latitude":7.083333,
      "minLong":4.7963046,
      "maxLat":7.1249106,
      "longitude":4.833333,
      "maxLong":4.871921599999999
   },
   {
      "minLat":4.347035099999999,
      "name":"Rivers",
      "capital":"Port Harcourt",
      "latitude":4.8580767,
      "minLong":6.382472000000001,
      "maxLat":5.694652899999999,
      "longitude":6.920913499999999,
      "maxLong":7.591592899999998
   },
   {
      "minLat":7.790425099999999,
      "name":"Oyo",
      "capital":"Ibadan",
      "latitude":7.85,
      "minLong":3.8832377,
      "maxLat":7.8899933,
      "longitude":3.933,
      "maxLong":3.9751624
   },
   {
      "minLat":6.969976,
      "name":"Osun",
      "capital":"Osogbo",
      "latitude":7.5875843,
      "minLong":4.020612,
      "maxLat":8.088640999999999,
      "longitude":4.5624426,
      "maxLong":5.0647019
   },
   {
      "minLat":12.9764148,
      "name":"Sokoto",
      "capital":"Sokoto",
      "latitude":13.066667,
      "minLong":5.1676084,
      "maxLat":13.0880893,
      "longitude":5.233333,
      "maxLong":5.2881144
   },
   {
      "minLat":8.350639,
      "name":"Plateau",
      "capital":"Jos",
      "latitude":9.2350817,
      "minLong":8.544271,
      "maxLat":10.3447241,
      "longitude":9.7232673,
      "maxLong":10.6606639
   },
   {
      "minLat":6.502453999999999,
      "name":"Taraba",
      "capital":"Jalingo",
      "latitude":7.9868755,
      "minLong":9.1043009,
      "maxLat":9.604444899999999,
      "longitude":10.9807003,
      "maxLong":11.981274
   },
   {
      "minLat":10.5932052,
      "name":"Yobe",
      "capital":"Damaturu",
      "latitude":12.1871412,
      "minLong":9.665973100000002,
      "maxLat":13.376133,
      "longitude":11.7068294,
      "maxLong":12.494047
   },
   {
      "minLat":10.854616,
      "name":"Zamfara",
      "capital":"Gusau",
      "latitude":12.1844159,
      "minLong":5.021007099999999,
      "maxLat":13.207291,
      "longitude":6.2375947,
      "maxLong":7.245729999999999
   }
]